EESchema Schematic File Version 2
LIBS:power
LIBS:device
LIBS:switches
LIBS:relays
LIBS:motors
LIBS:transistors
LIBS:conn
LIBS:linear
LIBS:regul
LIBS:74xx
LIBS:cmos4000
LIBS:adc-dac
LIBS:memory
LIBS:xilinx
LIBS:microcontrollers
LIBS:dsp
LIBS:microchip
LIBS:analog_switches
LIBS:motorola
LIBS:texas
LIBS:intel
LIBS:audio
LIBS:interface
LIBS:digital-audio
LIBS:philips
LIBS:display
LIBS:cypress
LIBS:siliconi
LIBS:opto
LIBS:atmel
LIBS:contrib
LIBS:valves
LIBS:my-microcontrollers
LIBS:my-power-supplies
LIBS:my-relays
LIBS:my-connectors
LIBS:my-displays
LIBS:my-rotary-encoders
LIBS:pressure-switch-cache
EELAYER 25 0
EELAYER END
$Descr A4 11693 8268
encoding utf-8
Sheet 1 1
Title ""
Date ""
Rev ""
Comp ""
Comment1 ""
Comment2 ""
Comment3 ""
Comment4 ""
$EndDescr
$Comp
L arduino_nano U1
U 1 1 618BA9D6
P 4450 3950
F 0 "U1" H 4750 2900 70  0000 C CNN
F 1 "arduino_nano" H 4750 3150 70  0000 C CNN
F 2 "myMicroControllers:Arduino-nano" H 4750 3900 60  0001 C CNN
F 3 "" H 4450 3950 60  0000 C CNN
	1    4450 3950
	1    0    0    -1  
$EndComp
$Comp
L Conn_01x03 J1
U 1 1 618BA9F3
P 3000 3650
F 0 "J1" H 3000 3850 50  0000 C CNN
F 1 "SENSOR" H 3000 3450 50  0000 C CNN
F 2 "Connectors_JST:JST_XH_S03B-XH-A_03x2.50mm_Angled" H 3000 3650 50  0001 C CNN
F 3 "" H 3000 3650 50  0001 C CNN
	1    3000 3650
	-1   0    0    1   
$EndComp
$Comp
L GND #PWR01
U 1 1 618BAA37
P 3300 3850
F 0 "#PWR01" H 3300 3600 50  0001 C CNN
F 1 "GND" H 3300 3700 50  0000 C CNN
F 2 "" H 3300 3850 50  0001 C CNN
F 3 "" H 3300 3850 50  0001 C CNN
	1    3300 3850
	1    0    0    -1  
$EndComp
$Comp
L +5V #PWR02
U 1 1 618BAA65
P 3300 3450
F 0 "#PWR02" H 3300 3300 50  0001 C CNN
F 1 "+5V" H 3300 3590 50  0000 C CNN
F 2 "" H 3300 3450 50  0001 C CNN
F 3 "" H 3300 3450 50  0001 C CNN
	1    3300 3450
	1    0    0    -1  
$EndComp
$Comp
L TM1637-DISPLAY U3
U 1 1 618BAEE8
P 6450 3450
F 0 "U3" H 8060 3650 60  0000 C CNN
F 1 "TM1637-DISPLAY" H 7560 3650 60  0000 C CNN
F 2 "myDisplays:TM1637-0.36" H 8510 3100 60  0001 C CNN
F 3 "" H 8510 3100 60  0000 C CNN
	1    6450 3450
	1    0    0    -1  
$EndComp
$Comp
L GND #PWR03
U 1 1 618BAF4B
P 6250 3850
F 0 "#PWR03" H 6250 3600 50  0001 C CNN
F 1 "GND" H 6250 3700 50  0000 C CNN
F 2 "" H 6250 3850 50  0001 C CNN
F 3 "" H 6250 3850 50  0001 C CNN
	1    6250 3850
	1    0    0    -1  
$EndComp
$Comp
L +5V #PWR04
U 1 1 618BAF6D
P 6350 3350
F 0 "#PWR04" H 6350 3200 50  0001 C CNN
F 1 "+5V" H 6350 3490 50  0000 C CNN
F 2 "" H 6350 3350 50  0001 C CNN
F 3 "" H 6350 3350 50  0001 C CNN
	1    6350 3350
	1    0    0    -1  
$EndComp
$Comp
L GND #PWR05
U 1 1 618BB17E
P 7450 4900
F 0 "#PWR05" H 7450 4650 50  0001 C CNN
F 1 "GND" H 7450 4750 50  0000 C CNN
F 2 "" H 7450 4900 50  0001 C CNN
F 3 "" H 7450 4900 50  0001 C CNN
	1    7450 4900
	1    0    0    -1  
$EndComp
$Comp
L GND #PWR06
U 1 1 618BB1CB
P 8250 4900
F 0 "#PWR06" H 8250 4650 50  0001 C CNN
F 1 "GND" H 8250 4750 50  0000 C CNN
F 2 "" H 8250 4900 50  0001 C CNN
F 3 "" H 8250 4900 50  0001 C CNN
	1    8250 4900
	1    0    0    -1  
$EndComp
$Comp
L +5V #PWR07
U 1 1 618BB26B
P 3600 4650
F 0 "#PWR07" H 3600 4500 50  0001 C CNN
F 1 "+5V" H 3600 4790 50  0000 C CNN
F 2 "" H 3600 4650 50  0001 C CNN
F 3 "" H 3600 4650 50  0001 C CNN
	1    3600 4650
	1    0    0    -1  
$EndComp
$Comp
L GND #PWR08
U 1 1 618BB2A2
P 3600 5150
F 0 "#PWR08" H 3600 4900 50  0001 C CNN
F 1 "GND" H 3600 5000 50  0000 C CNN
F 2 "" H 3600 5150 50  0001 C CNN
F 3 "" H 3600 5150 50  0001 C CNN
	1    3600 5150
	1    0    0    -1  
$EndComp
Wire Wire Line
	3200 3750 3300 3750
Wire Wire Line
	3300 3750 3300 3850
Wire Wire Line
	3300 3450 3300 3650
Wire Wire Line
	3300 3650 3200 3650
Wire Wire Line
	3200 3550 3750 3550
Wire Wire Line
	6150 3550 6150 4150
Wire Wire Line
	6250 3850 6250 3650
Wire Wire Line
	6250 3650 6450 3650
Wire Wire Line
	6350 3350 6350 3750
Wire Wire Line
	6350 3750 6450 3750
Wire Wire Line
	6050 3450 6050 4000
Wire Wire Line
	7050 4800 7550 4800
Wire Wire Line
	7550 4700 7450 4700
Wire Wire Line
	7450 4700 7450 4900
Wire Wire Line
	8250 4900 8250 4800
Wire Wire Line
	8250 4800 8150 4800
Wire Wire Line
	6150 4150 5800 4150
Wire Wire Line
	6050 4000 5800 4000
Wire Wire Line
	5800 4300 8250 4300
Wire Wire Line
	8250 4300 8250 4600
Wire Wire Line
	8250 4600 8150 4600
Wire Wire Line
	3600 4650 3600 4750
Wire Wire Line
	3600 4750 3750 4750
Wire Wire Line
	3600 5150 3600 5050
Wire Wire Line
	3600 5050 3750 5050
$Comp
L IRM-XX-XX U2
U 1 1 618BB30F
P 4800 5950
F 0 "U2" H 4800 6200 60  0000 C CNN
F 1 "HILINK-HLK-5VDC" H 4400 5700 60  0000 L CNN
F 2 "myPowerSupplies:HLK-PM01" H 4800 5950 60  0001 C CNN
F 3 "" H 4800 5950 60  0000 C CNN
	1    4800 5950
	1    0    0    -1  
$EndComp
Wire Wire Line
	3850 5900 3850 5750
Wire Wire Line
	3200 6000 4150 6000
Wire Wire Line
	3850 6000 3850 6150
$Comp
L +5V #PWR09
U 1 1 618BB4A5
P 5550 5750
F 0 "#PWR09" H 5550 5600 50  0001 C CNN
F 1 "+5V" H 5550 5890 50  0000 C CNN
F 2 "" H 5550 5750 50  0001 C CNN
F 3 "" H 5550 5750 50  0001 C CNN
	1    5550 5750
	1    0    0    -1  
$EndComp
Wire Wire Line
	5550 5750 5550 5850
Wire Wire Line
	5550 5850 5450 5850
$Comp
L GND #PWR010
U 1 1 618BB4EE
P 5550 6150
F 0 "#PWR010" H 5550 5900 50  0001 C CNN
F 1 "GND" H 5550 6000 50  0000 C CNN
F 2 "" H 5550 6150 50  0001 C CNN
F 3 "" H 5550 6150 50  0001 C CNN
	1    5550 6150
	1    0    0    -1  
$EndComp
Wire Wire Line
	5550 6150 5550 6050
Wire Wire Line
	5550 6050 5450 6050
$Comp
L Rotary_Encoder_Switch SW1
U 1 1 618BAFC0
P 7850 4700
F 0 "SW1" H 7850 4960 50  0000 C CNN
F 1 "ALPS-EC11E" H 7850 4440 50  0000 C CNN
F 2 "mySwitches:RotaryEncoder_Alps_EC11E-Switch_Vertical_H20mm" H 7750 4860 50  0001 C CNN
F 3 "" H 7850 4960 50  0001 C CNN
	1    7850 4700
	1    0    0    -1  
$EndComp
$Comp
L RELAY_SPDT K1
U 1 1 618BD554
P 7300 1600
F 0 "K1" H 7300 1000 50  0000 C CNN
F 1 "SRD-5VDC-SL-C" H 7300 1800 50  0000 C CNN
F 2 "myRelays:SRD-5VDC-SL-C" H 7300 1600 50  0001 C CNN
F 3 "" H 7300 1600 50  0000 C CNN
	1    7300 1600
	1    0    0    -1  
$EndComp
$Comp
L Q_NPN_EBC Q1
U 1 1 618BD5CD
P 6400 2450
F 0 "Q1" H 6600 2500 50  0000 L CNN
F 1 "2N2222" H 6600 2400 50  0000 L CNN
F 2 "TO_SOT_Packages_THT:TO-92_Inline_Wide" H 6600 2550 50  0001 C CNN
F 3 "" H 6400 2450 50  0001 C CNN
	1    6400 2450
	1    0    0    -1  
$EndComp
$Comp
L R R1
U 1 1 618BD5F2
P 6100 2800
F 0 "R1" V 6180 2800 50  0000 C CNN
F 1 "1K" V 6100 2800 50  0000 C CNN
F 2 "Resistors_THT:R_Axial_DIN0207_L6.3mm_D2.5mm_P10.16mm_Horizontal" V 6030 2800 50  0001 C CNN
F 3 "" H 6100 2800 50  0001 C CNN
	1    6100 2800
	1    0    0    -1  
$EndComp
Wire Wire Line
	5800 3850 6100 3850
Wire Wire Line
	6100 3850 6100 2950
Wire Wire Line
	6100 2650 6100 2450
Wire Wire Line
	6100 2450 6200 2450
$Comp
L D D1
U 1 1 618BD718
P 6500 1900
F 0 "D1" H 6500 2000 50  0000 C CNN
F 1 "1N4148" H 6500 1800 50  0000 C CNN
F 2 "Diodes_THT:D_DO-35_SOD27_P10.16mm_Horizontal" H 6500 1900 50  0001 C CNN
F 3 "" H 6500 1900 50  0001 C CNN
	1    6500 1900
	0    1    1    0   
$EndComp
Wire Wire Line
	6500 2050 6500 2250
$Comp
L +5V #PWR011
U 1 1 618BD797
P 6500 1550
F 0 "#PWR011" H 6500 1400 50  0001 C CNN
F 1 "+5V" H 6500 1690 50  0000 C CNN
F 2 "" H 6500 1550 50  0001 C CNN
F 3 "" H 6500 1550 50  0001 C CNN
	1    6500 1550
	1    0    0    -1  
$EndComp
Wire Wire Line
	6500 1550 6500 1750
Wire Wire Line
	6500 1650 6700 1650
Wire Wire Line
	6700 1650 6700 1850
Wire Wire Line
	6700 1850 6900 1850
Connection ~ 6500 1650
Wire Wire Line
	6900 1950 6700 1950
Wire Wire Line
	6700 1950 6700 2150
Wire Wire Line
	6700 2150 6500 2150
Connection ~ 6500 2150
Wire Wire Line
	6900 1650 6800 1650
Wire Wire Line
	6800 1650 6800 1350
$Comp
L LINE #PWR012
U 1 1 618BDB51
P 3850 5750
F 0 "#PWR012" H 3850 5600 50  0001 C CNN
F 1 "LINE" H 3850 5900 50  0000 C CNN
F 2 "" H 3850 5750 50  0001 C CNN
F 3 "" H 3850 5750 50  0001 C CNN
	1    3850 5750
	1    0    0    -1  
$EndComp
Connection ~ 3850 5900
$Comp
L LINE #PWR013
U 1 1 618BDBF1
P 6800 1350
F 0 "#PWR013" H 6800 1200 50  0001 C CNN
F 1 "LINE" H 6800 1500 50  0000 C CNN
F 2 "" H 6800 1350 50  0001 C CNN
F 3 "" H 6800 1350 50  0001 C CNN
	1    6800 1350
	1    0    0    -1  
$EndComp
Wire Wire Line
	7900 1750 7700 1750
$Comp
L NEUT #PWR014
U 1 1 618BDD13
P 3850 6150
F 0 "#PWR014" H 3850 6000 50  0001 C CNN
F 1 "NEUT" H 3850 6300 50  0000 C CNN
F 2 "" H 3850 6150 50  0001 C CNN
F 3 "" H 3850 6150 50  0001 C CNN
	1    3850 6150
	-1   0    0    1   
$EndComp
Connection ~ 3850 6000
$Comp
L NEUT #PWR015
U 1 1 618BDD8E
P 7800 1950
F 0 "#PWR015" H 7800 1800 50  0001 C CNN
F 1 "NEUT" H 7800 2100 50  0000 C CNN
F 2 "" H 7800 1950 50  0001 C CNN
F 3 "" H 7800 1950 50  0001 C CNN
	1    7800 1950
	-1   0    0    1   
$EndComp
Wire Wire Line
	7800 1950 7800 1850
Wire Wire Line
	7800 1850 7900 1850
$Comp
L GND #PWR016
U 1 1 618BDF77
P 6500 2750
F 0 "#PWR016" H 6500 2500 50  0001 C CNN
F 1 "GND" H 6500 2600 50  0000 C CNN
F 2 "" H 6500 2750 50  0001 C CNN
F 3 "" H 6500 2750 50  0001 C CNN
	1    6500 2750
	1    0    0    -1  
$EndComp
Wire Wire Line
	6500 2750 6500 2650
Wire Wire Line
	5800 4450 7100 4450
Wire Wire Line
	7100 4450 7100 4600
Wire Wire Line
	7100 4600 7550 4600
Wire Wire Line
	7050 4800 7050 4600
Wire Wire Line
	7050 4600 5800 4600
$Comp
L Conn_01x02 J2
U 1 1 618BE64A
P 3000 5900
F 0 "J2" H 3000 6000 50  0000 C CNN
F 1 "230V" H 3000 5700 50  0000 C CNN
F 2 "Connectors_Terminal_Blocks:TerminalBlock_bornier-2_P5.08mm" H 3000 5900 50  0001 C CNN
F 3 "" H 3000 5900 50  0001 C CNN
	1    3000 5900
	-1   0    0    -1  
$EndComp
$Comp
L Conn_01x02 J3
U 1 1 618BE6D2
P 8100 1850
F 0 "J3" H 8100 1950 50  0000 C CNN
F 1 "PUMP" H 8100 1650 50  0000 C CNN
F 2 "Connectors_Terminal_Blocks:TerminalBlock_bornier-2_P5.08mm" H 8100 1850 50  0001 C CNN
F 3 "" H 8100 1850 50  0001 C CNN
	1    8100 1850
	1    0    0    1   
$EndComp
Wire Wire Line
	6150 3550 6450 3550
Wire Wire Line
	6450 3450 6050 3450
$Comp
L SW_SPST SW2
U 1 1 618BFB27
P 3500 5900
F 0 "SW2" H 3500 6025 50  0000 C CNN
F 1 "ON-OFF" H 3500 5750 50  0000 C CNN
F 2 "mySwitches:ROCKER-SWITCH-20x15" H 3500 5900 50  0001 C CNN
F 3 "" H 3500 5900 50  0001 C CNN
	1    3500 5900
	1    0    0    -1  
$EndComp
Wire Wire Line
	3300 5900 3200 5900
Wire Wire Line
	3700 5900 4150 5900
$EndSCHEMATC
